Data Wrangling
…
.question[
We have three species of penguin (Adelie, Chinstrap, Gentoo). Let's make a subset with just the Chinstrap penguins.
]

--

**Step 1:** What data do I start with?

```r
penguins
```

```
## # A tibble: 344 × 8
##    species   island bill_length_mm bill_depth_mm flipper_length_mm body_mass_g
##    <fct>     <fct>           <dbl>         <dbl>             <int>       <int>
##  1 Adelie    Dream            39.6          18.1               186        4450
##  2 Chinstrap Dream            46.9          16.6               192        2700
##  3 Adelie    Dream            41.5          18.5               201        4000
##  4 Gentoo    Biscoe           50.4          15.3               224        5550
##  5 Adelie    Biscoe           35.9          19.2               189        3800
##  6 Gentoo    Biscoe           46.5          14.5               213        4400
##  7 Adelie    Dream            36.5          18                 182        3150
##  8 Adelie    Dream            37.3          16.8               192        3000
##  9 Gentoo    Biscoe           44.5          14.3               216        4100
## 10 Adelie    Biscoe           38.2          18.1               185        3950
## # … with 334 more rows, and 2 more variables: sex <fct>, year <int>
```
…
## Making a subset of the data

.question[
We have three species of penguin (Adelie, Chinstrap, Gentoo). Let's make a subset with just the Chinstrap penguins.
]

**Step 2:** What do I do to that data?

```r
penguins %>%
  filter(species == "Chinstrap")
```

```
## # A tibble: 68 × 8
##    species   island bill_length_mm bill_depth_mm flipper_length_mm body_mass_g
##    <fct>     <fct>           <dbl>         <dbl>             <int>       <int>
##  1 Chinstrap Dream            46.9          16.6               192        2700
##  2 Chinstrap Dream            50.9          19.1               196        3550
##  3 Chinstrap Dream            45.7          17                 195        3650
##  4 Chinstrap Dream            46.4          17.8               191        3700
##  5 Chinstrap Dream            50.8          18.5               201        4450
##  6 Chinstrap Dream            51.3          19.9               198        3700
##  7 Chinstrap Dream            46            18.9               195        4150
##  8 Chinstrap Dream            51.3          18.2               197        3750
##  9 Chinstrap Dream            51            18.8               203        4100
## 10 Chinstrap Dream            49            19.5               210        3950
## # … with 58 more rows, and 2 more variables: sex <fct>, year <int>
```
…
## Making a subset of the data

.question[
We have three species of penguin (Adelie, Chinstrap, Gentoo). Let's make a subset with just the Chinstrap penguins.
]

```r
chinstrap_penguins <- penguins %>% 
  filter(species == "Chinstrap")

chinstrap_penguins
```

```
## # A tibble: 68 × 8
##    species   island bill_length_mm bill_depth_mm flipper_length_mm body_mass_g
##    <fct>     <fct>           <dbl>         <dbl>             <int>       <int>
##  1 Chinstrap Dream            46.9          16.6               192        2700
##  2 Chinstrap Dream            50.9          19.1               196        3550
##  3 Chinstrap Dream            45.7          17                 195        3650
##  4 Chinstrap Dream            46.4          17.8               191        3700
##  5 Chinstrap Dream            50.8          18.5               201        4450
##  6 Chinstrap Dream            51.3          19.9               198        3700
##  7 Chinstrap Dream            46            18.9               195        4150
##  8 Chinstrap Dream            51.3          18.2               197        3750
##  9 Chinstrap Dream            51            18.8               203        4100
## 10 Chinstrap Dream            49            19.5               210        3950
## # … with 58 more rows, and 2 more variables: sex <fct>, year <int>
```
…
.question[
What is the average body mass for Chinstrap penguins?
]

--

**Step 1:** What data do I start with?

```r
chinstrap_penguins
```

```
## # A tibble: 68 × 8
##    species   island bill_length_mm bill_depth_mm flipper_length_mm body_mass_g
##    <fct>     <fct>           <dbl>         <dbl>             <int>       <int>
##  1 Chinstrap Dream            46.9          16.6               192        2700
##  2 Chinstrap Dream            50.9          19.1               196        3550
##  3 Chinstrap Dream            45.7          17                 195        3650
##  4 Chinstrap Dream            46.4          17.8               191        3700
##  5 Chinstrap Dream            50.8          18.5               201        4450
##  6 Chinstrap Dream            51.3          19.9               198        3700
##  7 Chinstrap Dream            46            18.9               195        4150
##  8 Chinstrap Dream            51.3          18.2               197        3750
##  9 Chinstrap Dream            51            18.8               203        4100
## 10 Chinstrap Dream            49            19.5               210        3950
## # … with 58 more rows, and 2 more variables: sex <fct>, year <int>
```
…
